{
  "endpoints": {
    "catalog": {
      "products": "/catalog/api/v1/products",
      "landingProducts": "/catalog/api/v1/landing/products",
      "searchProducts" : "/catalog/api/v1/search/products",
      "topCategories" : "/catalog/api/v1/categories?top"
    }
  }
}